DIM_M,DIM_N,BLK_M,BLK_N,BLK_K,DIM_M_A,DIM_N_A,DIM_M_B,DIM_N_B
Integer,Integer,Integer,Integer,Integer,Integer,Integer,Integer,Integer
Compile,Compile,Compile,Compile,Compile,Compile,Compile,Compile,Compile
4,64,128,128,32,8,32,4,64
4,64,128,128,32,8,32,8,32
4,64,128,128,32,8,32,16,16
4,64,128,128,32,8,32,32,8
4,64,128,128,16,16,16,4,64
4,64,128,128,32,16,16,4,64
4,64,128,128,48,16,16,4,64
4,64,128,128,16,16,16,8,32
4,64,128,128,32,16,16,8,32
4,64,128,128,48,16,16,8,32
4,64,128,128,16,16,16,16,16
4,64,128,128,32,16,16,16,16
4,64,128,128,48,16,16,16,16
4,64,128,128,32,16,16,32,8
4,64,128,128,8,32,8,4,64
4,64,128,128,16,32,8,4,64
4,64,128,128,24,32,8,4,64
4,64,128,128,32,32,8,4,64
4,64,128,128,40,32,8,4,64
4,64,128,128,48,32,8,4,64
4,64,128,128,8,32,8,8,32
4,64,128,128,16,32,8,8,32
4,64,128,128,24,32,8,8,32
4,64,128,128,32,32,8,8,32
4,64,128,128,40,32,8,8,32
4,64,128,128,48,32,8,8,32
4,64,128,128,16,32,8,16,16
4,64,128,128,32,32,8,16,16
4,64,128,128,48,32,8,16,16
4,64,128,128,32,32,8,32,8
4,64,128,128,4,64,4,4,64
4,64,128,128,8,64,4,4,64
4,64,128,128,12,64,4,4,64
4,64,128,128,16,64,4,4,64
4,64,128,128,20,64,4,4,64
4,64,128,128,24,64,4,4,64
4,64,128,128,28,64,4,4,64
4,64,128,128,32,64,4,4,64
4,64,128,128,36,64,4,4,64
4,64,128,128,40,64,4,4,64
4,64,128,128,44,64,4,4,64
4,64,128,128,48,64,4,4,64
4,64,128,128,8,64,4,8,32
4,64,128,128,16,64,4,8,32
4,64,128,128,24,64,4,8,32
4,64,128,128,32,64,4,8,32
4,64,128,128,40,64,4,8,32
4,64,128,128,48,64,4,8,32
4,64,128,128,16,64,4,16,16
4,64,128,128,32,64,4,16,16
4,64,128,128,48,64,4,16,16
4,64,128,128,32,64,4,32,8
8,32,128,128,32,8,32,4,64
8,32,128,128,32,8,32,8,32
8,32,128,128,32,8,32,16,16
8,32,128,128,32,8,32,32,8
8,32,128,128,16,16,16,4,64
8,32,128,128,32,16,16,4,64
8,32,128,128,48,16,16,4,64
8,32,128,128,16,16,16,8,32
8,32,128,128,32,16,16,8,32
8,32,128,128,48,16,16,8,32
8,32,128,128,16,16,16,16,16
8,32,128,128,32,16,16,16,16
8,32,128,128,48,16,16,16,16
8,32,128,128,32,16,16,32,8
8,32,128,128,8,32,8,4,64
8,32,128,128,16,32,8,4,64
8,32,128,128,24,32,8,4,64
8,32,128,128,32,32,8,4,64
8,32,128,128,40,32,8,4,64
8,32,128,128,48,32,8,4,64
8,32,128,128,8,32,8,8,32
8,32,128,128,16,32,8,8,32
8,32,128,128,24,32,8,8,32
8,32,128,128,32,32,8,8,32
8,32,128,128,40,32,8,8,32
8,32,128,128,48,32,8,8,32
8,32,128,128,16,32,8,16,16
8,32,128,128,32,32,8,16,16
8,32,128,128,48,32,8,16,16
8,32,128,128,32,32,8,32,8
8,32,128,128,4,64,4,4,64
8,32,128,128,8,64,4,4,64
8,32,128,128,12,64,4,4,64
8,32,128,128,16,64,4,4,64
8,32,128,128,20,64,4,4,64
8,32,128,128,24,64,4,4,64
8,32,128,128,28,64,4,4,64
8,32,128,128,32,64,4,4,64
8,32,128,128,36,64,4,4,64
8,32,128,128,40,64,4,4,64
8,32,128,128,44,64,4,4,64
8,32,128,128,48,64,4,4,64
8,32,128,128,8,64,4,8,32
8,32,128,128,16,64,4,8,32
8,32,128,128,24,64,4,8,32
8,32,128,128,32,64,4,8,32
8,32,128,128,40,64,4,8,32
8,32,128,128,48,64,4,8,32
8,32,128,128,16,64,4,16,16
8,32,128,128,32,64,4,16,16
8,32,128,128,48,64,4,16,16
8,32,128,128,32,64,4,32,8
8,64,128,128,32,16,32,4,128
8,64,128,128,32,16,32,8,64
8,64,128,128,32,16,32,16,32
8,64,128,128,32,16,32,32,16
8,64,128,128,16,32,16,4,128
8,64,128,128,32,32,16,4,128
8,64,128,128,48,32,16,4,128
8,64,128,128,16,32,16,8,64
8,64,128,128,32,32,16,8,64
8,64,128,128,48,32,16,8,64
8,64,128,128,16,32,16,16,32
8,64,128,128,32,32,16,16,32
8,64,128,128,48,32,16,16,32
8,64,128,128,32,32,16,32,16
8,64,128,128,8,64,8,4,128
8,64,128,128,16,64,8,4,128
8,64,128,128,24,64,8,4,128
8,64,128,128,32,64,8,4,128
8,64,128,128,40,64,8,4,128
8,64,128,128,48,64,8,4,128
8,64,128,128,8,64,8,8,64
8,64,128,128,16,64,8,8,64
8,64,128,128,24,64,8,8,64
8,64,128,128,32,64,8,8,64
8,64,128,128,40,64,8,8,64
8,64,128,128,48,64,8,8,64
8,64,128,128,16,64,8,16,32
8,64,128,128,32,64,8,16,32
8,64,128,128,48,64,8,16,32
8,64,128,128,32,64,8,32,16
8,64,128,128,4,128,4,4,128
8,64,128,128,8,128,4,4,128
8,64,128,128,12,128,4,4,128
8,64,128,128,16,128,4,4,128
8,64,128,128,20,128,4,4,128
8,64,128,128,24,128,4,4,128
8,64,128,128,28,128,4,4,128
8,64,128,128,32,128,4,4,128
8,64,128,128,36,128,4,4,128
8,64,128,128,40,128,4,4,128
8,64,128,128,44,128,4,4,128
8,64,128,128,48,128,4,4,128
8,64,128,128,8,128,4,8,64
8,64,128,128,16,128,4,8,64
8,64,128,128,24,128,4,8,64
8,64,128,128,32,128,4,8,64
8,64,128,128,40,128,4,8,64
8,64,128,128,48,128,4,8,64
8,64,128,128,16,128,4,16,32
8,64,128,128,32,128,4,16,32
8,64,128,128,48,128,4,16,32
8,64,128,128,32,128,4,32,16
16,16,128,128,32,8,32,4,64
16,16,128,128,32,8,32,8,32
16,16,128,128,32,8,32,16,16
16,16,128,128,32,8,32,32,8
16,16,128,128,16,16,16,4,64
16,16,128,128,32,16,16,4,64
16,16,128,128,48,16,16,4,64
16,16,128,128,16,16,16,8,32
16,16,128,128,32,16,16,8,32
16,16,128,128,48,16,16,8,32
16,16,128,128,16,16,16,16,16
16,16,128,128,32,16,16,16,16
16,16,128,128,48,16,16,16,16
16,16,128,128,32,16,16,32,8
16,16,128,128,8,32,8,4,64
16,16,128,128,16,32,8,4,64
16,16,128,128,24,32,8,4,64
16,16,128,128,32,32,8,4,64
16,16,128,128,40,32,8,4,64
16,16,128,128,48,32,8,4,64
16,16,128,128,8,32,8,8,32
16,16,128,128,16,32,8,8,32
16,16,128,128,24,32,8,8,32
16,16,128,128,32,32,8,8,32
16,16,128,128,40,32,8,8,32
16,16,128,128,48,32,8,8,32
16,16,128,128,16,32,8,16,16
16,16,128,128,32,32,8,16,16
16,16,128,128,48,32,8,16,16
16,16,128,128,32,32,8,32,8
16,16,128,128,4,64,4,4,64
16,16,128,128,8,64,4,4,64
16,16,128,128,12,64,4,4,64
16,16,128,128,16,64,4,4,64
16,16,128,128,20,64,4,4,64
16,16,128,128,24,64,4,4,64
16,16,128,128,28,64,4,4,64
16,16,128,128,32,64,4,4,64
16,16,128,128,36,64,4,4,64
16,16,128,128,40,64,4,4,64
16,16,128,128,44,64,4,4,64
16,16,128,128,48,64,4,4,64
16,16,128,128,8,64,4,8,32
16,16,128,128,16,64,4,8,32
16,16,128,128,24,64,4,8,32
16,16,128,128,32,64,4,8,32
16,16,128,128,40,64,4,8,32
16,16,128,128,48,64,4,8,32
16,16,128,128,16,64,4,16,16
16,16,128,128,32,64,4,16,16
16,16,128,128,48,64,4,16,16
16,16,128,128,32,64,4,32,8
16,32,128,128,32,16,32,4,128
16,32,128,128,32,16,32,8,64
16,32,128,128,32,16,32,16,32
16,32,128,128,32,16,32,32,16
16,32,128,128,16,32,16,4,128
16,32,128,128,32,32,16,4,128
16,32,128,128,48,32,16,4,128
16,32,128,128,16,32,16,8,64
16,32,128,128,32,32,16,8,64
16,32,128,128,48,32,16,8,64
16,32,128,128,16,32,16,16,32
16,32,128,128,32,32,16,16,32
16,32,128,128,48,32,16,16,32
16,32,128,128,32,32,16,32,16
16,32,128,128,8,64,8,4,128
16,32,128,128,16,64,8,4,128
16,32,128,128,24,64,8,4,128
16,32,128,128,32,64,8,4,128
16,32,128,128,40,64,8,4,128
16,32,128,128,48,64,8,4,128
16,32,128,128,8,64,8,8,64
16,32,128,128,16,64,8,8,64
16,32,128,128,24,64,8,8,64
16,32,128,128,32,64,8,8,64
16,32,128,128,40,64,8,8,64
16,32,128,128,48,64,8,8,64
16,32,128,128,16,64,8,16,32
16,32,128,128,32,64,8,16,32
16,32,128,128,48,64,8,16,32
16,32,128,128,32,64,8,32,16
16,32,128,128,4,128,4,4,128
16,32,128,128,8,128,4,4,128
16,32,128,128,12,128,4,4,128
16,32,128,128,16,128,4,4,128
16,32,128,128,20,128,4,4,128
16,32,128,128,24,128,4,4,128
16,32,128,128,28,128,4,4,128
16,32,128,128,32,128,4,4,128
16,32,128,128,36,128,4,4,128
16,32,128,128,40,128,4,4,128
16,32,128,128,44,128,4,4,128
16,32,128,128,48,128,4,4,128
16,32,128,128,8,128,4,8,64
16,32,128,128,16,128,4,8,64
16,32,128,128,24,128,4,8,64
16,32,128,128,32,128,4,8,64
16,32,128,128,40,128,4,8,64
16,32,128,128,48,128,4,8,64
16,32,128,128,16,128,4,16,32
16,32,128,128,32,128,4,16,32
16,32,128,128,48,128,4,16,32
16,32,128,128,32,128,4,32,16
16,64,128,128,32,32,32,8,128
16,64,128,128,32,32,32,16,64
16,64,128,128,32,32,32,32,32
16,64,128,128,16,64,16,8,128
16,64,128,128,32,64,16,8,128
16,64,128,128,48,64,16,8,128
16,64,128,128,16,64,16,16,64
16,64,128,128,32,64,16,16,64
16,64,128,128,48,64,16,16,64
16,64,128,128,32,64,16,32,32
16,64,128,128,8,128,8,8,128
16,64,128,128,16,128,8,8,128
16,64,128,128,24,128,8,8,128
16,64,128,128,32,128,8,8,128
16,64,128,128,40,128,8,8,128
16,64,128,128,48,128,8,8,128
16,64,128,128,16,128,8,16,64
16,64,128,128,32,128,8,16,64
16,64,128,128,48,128,8,16,64
16,64,128,128,32,128,8,32,32
32,8,128,128,32,8,32,4,64
32,8,128,128,32,8,32,8,32
32,8,128,128,32,8,32,16,16
32,8,128,128,32,8,32,32,8
32,8,128,128,16,16,16,4,64
32,8,128,128,32,16,16,4,64
32,8,128,128,48,16,16,4,64
32,8,128,128,16,16,16,8,32
32,8,128,128,32,16,16,8,32
32,8,128,128,48,16,16,8,32
32,8,128,128,16,16,16,16,16
32,8,128,128,32,16,16,16,16
32,8,128,128,48,16,16,16,16
32,8,128,128,32,16,16,32,8
32,8,128,128,8,32,8,4,64
32,8,128,128,16,32,8,4,64
32,8,128,128,24,32,8,4,64
32,8,128,128,32,32,8,4,64
32,8,128,128,40,32,8,4,64
32,8,128,128,48,32,8,4,64
32,8,128,128,8,32,8,8,32
32,8,128,128,16,32,8,8,32
32,8,128,128,24,32,8,8,32
32,8,128,128,32,32,8,8,32
32,8,128,128,40,32,8,8,32
32,8,128,128,48,32,8,8,32
32,8,128,128,16,32,8,16,16
32,8,128,128,32,32,8,16,16
32,8,128,128,48,32,8,16,16
32,8,128,128,32,32,8,32,8
32,8,128,128,4,64,4,4,64
32,8,128,128,8,64,4,4,64
32,8,128,128,12,64,4,4,64
32,8,128,128,16,64,4,4,64
32,8,128,128,20,64,4,4,64
32,8,128,128,24,64,4,4,64
32,8,128,128,28,64,4,4,64
32,8,128,128,32,64,4,4,64
32,8,128,128,36,64,4,4,64
32,8,128,128,40,64,4,4,64
32,8,128,128,44,64,4,4,64
32,8,128,128,48,64,4,4,64
32,8,128,128,8,64,4,8,32
32,8,128,128,16,64,4,8,32
32,8,128,128,24,64,4,8,32
32,8,128,128,32,64,4,8,32
32,8,128,128,40,64,4,8,32
32,8,128,128,48,64,4,8,32
32,8,128,128,16,64,4,16,16
32,8,128,128,32,64,4,16,16
32,8,128,128,48,64,4,16,16
32,8,128,128,32,64,4,32,8
32,16,128,128,32,16,32,4,128
32,16,128,128,32,16,32,8,64
32,16,128,128,32,16,32,16,32
32,16,128,128,32,16,32,32,16
32,16,128,128,16,32,16,4,128
32,16,128,128,32,32,16,4,128
32,16,128,128,48,32,16,4,128
32,16,128,128,16,32,16,8,64
32,16,128,128,32,32,16,8,64
32,16,128,128,48,32,16,8,64
32,16,128,128,16,32,16,16,32
32,16,128,128,32,32,16,16,32
32,16,128,128,48,32,16,16,32
32,16,128,128,32,32,16,32,16
32,16,128,128,8,64,8,4,128
32,16,128,128,16,64,8,4,128
32,16,128,128,24,64,8,4,128
32,16,128,128,32,64,8,4,128
32,16,128,128,40,64,8,4,128
32,16,128,128,48,64,8,4,128
32,16,128,128,8,64,8,8,64
32,16,128,128,16,64,8,8,64
32,16,128,128,24,64,8,8,64
32,16,128,128,32,64,8,8,64
32,16,128,128,40,64,8,8,64
32,16,128,128,48,64,8,8,64
32,16,128,128,16,64,8,16,32
32,16,128,128,32,64,8,16,32
32,16,128,128,48,64,8,16,32
32,16,128,128,32,64,8,32,16
32,16,128,128,4,128,4,4,128
32,16,128,128,8,128,4,4,128
32,16,128,128,12,128,4,4,128
32,16,128,128,16,128,4,4,128
32,16,128,128,20,128,4,4,128
32,16,128,128,24,128,4,4,128
32,16,128,128,28,128,4,4,128
32,16,128,128,32,128,4,4,128
32,16,128,128,36,128,4,4,128
32,16,128,128,40,128,4,4,128
32,16,128,128,44,128,4,4,128
32,16,128,128,48,128,4,4,128
32,16,128,128,8,128,4,8,64
32,16,128,128,16,128,4,8,64
32,16,128,128,24,128,4,8,64
32,16,128,128,32,128,4,8,64
32,16,128,128,40,128,4,8,64
32,16,128,128,48,128,4,8,64
32,16,128,128,16,128,4,16,32
32,16,128,128,32,128,4,16,32
32,16,128,128,48,128,4,16,32
32,16,128,128,32,128,4,32,16
32,32,128,128,32,32,32,8,128
32,32,128,128,32,32,32,16,64
32,32,128,128,32,32,32,32,32
32,32,128,128,16,64,16,8,128
32,32,128,128,32,64,16,8,128
32,32,128,128,48,64,16,8,128
32,32,128,128,16,64,16,16,64
32,32,128,128,32,64,16,16,64
32,32,128,128,48,64,16,16,64
32,32,128,128,32,64,16,32,32
32,32,128,128,8,128,8,8,128
32,32,128,128,16,128,8,8,128
32,32,128,128,24,128,8,8,128
32,32,128,128,32,128,8,8,128
32,32,128,128,40,128,8,8,128
32,32,128,128,48,128,8,8,128
32,32,128,128,16,128,8,16,64
32,32,128,128,32,128,8,16,64
32,32,128,128,48,128,8,16,64
32,32,128,128,32,128,8,32,32
64,4,128,128,32,8,32,4,64
64,4,128,128,32,8,32,8,32
64,4,128,128,32,8,32,16,16
64,4,128,128,32,8,32,32,8
64,4,128,128,16,16,16,4,64
64,4,128,128,32,16,16,4,64
64,4,128,128,48,16,16,4,64
64,4,128,128,16,16,16,8,32
64,4,128,128,32,16,16,8,32
64,4,128,128,48,16,16,8,32
64,4,128,128,16,16,16,16,16
64,4,128,128,32,16,16,16,16
64,4,128,128,48,16,16,16,16
64,4,128,128,32,16,16,32,8
64,4,128,128,8,32,8,4,64
64,4,128,128,16,32,8,4,64
64,4,128,128,24,32,8,4,64
64,4,128,128,32,32,8,4,64
64,4,128,128,40,32,8,4,64
64,4,128,128,48,32,8,4,64
64,4,128,128,8,32,8,8,32
64,4,128,128,16,32,8,8,32
64,4,128,128,24,32,8,8,32
64,4,128,128,32,32,8,8,32
64,4,128,128,40,32,8,8,32
64,4,128,128,48,32,8,8,32
64,4,128,128,16,32,8,16,16
64,4,128,128,32,32,8,16,16
64,4,128,128,48,32,8,16,16
64,4,128,128,32,32,8,32,8
64,4,128,128,4,64,4,4,64
64,4,128,128,8,64,4,4,64
64,4,128,128,12,64,4,4,64
64,4,128,128,16,64,4,4,64
64,4,128,128,20,64,4,4,64
64,4,128,128,24,64,4,4,64
64,4,128,128,28,64,4,4,64
64,4,128,128,32,64,4,4,64
64,4,128,128,36,64,4,4,64
64,4,128,128,40,64,4,4,64
64,4,128,128,44,64,4,4,64
64,4,128,128,48,64,4,4,64
64,4,128,128,8,64,4,8,32
64,4,128,128,16,64,4,8,32
64,4,128,128,24,64,4,8,32
64,4,128,128,32,64,4,8,32
64,4,128,128,40,64,4,8,32
64,4,128,128,48,64,4,8,32
64,4,128,128,16,64,4,16,16
64,4,128,128,32,64,4,16,16
64,4,128,128,48,64,4,16,16
64,4,128,128,32,64,4,32,8
64,8,128,128,32,16,32,4,128
64,8,128,128,32,16,32,8,64
64,8,128,128,32,16,32,16,32
64,8,128,128,32,16,32,32,16
64,8,128,128,16,32,16,4,128
64,8,128,128,32,32,16,4,128
64,8,128,128,48,32,16,4,128
64,8,128,128,16,32,16,8,64
64,8,128,128,32,32,16,8,64
64,8,128,128,48,32,16,8,64
64,8,128,128,16,32,16,16,32
64,8,128,128,32,32,16,16,32
64,8,128,128,48,32,16,16,32
64,8,128,128,32,32,16,32,16
64,8,128,128,8,64,8,4,128
64,8,128,128,16,64,8,4,128
64,8,128,128,24,64,8,4,128
64,8,128,128,32,64,8,4,128
64,8,128,128,40,64,8,4,128
64,8,128,128,48,64,8,4,128
64,8,128,128,8,64,8,8,64
64,8,128,128,16,64,8,8,64
64,8,128,128,24,64,8,8,64
64,8,128,128,32,64,8,8,64
64,8,128,128,40,64,8,8,64
64,8,128,128,48,64,8,8,64
64,8,128,128,16,64,8,16,32
64,8,128,128,32,64,8,16,32
64,8,128,128,48,64,8,16,32
64,8,128,128,32,64,8,32,16
64,8,128,128,4,128,4,4,128
64,8,128,128,8,128,4,4,128
64,8,128,128,12,128,4,4,128
64,8,128,128,16,128,4,4,128
64,8,128,128,20,128,4,4,128
64,8,128,128,24,128,4,4,128
64,8,128,128,28,128,4,4,128
64,8,128,128,32,128,4,4,128
64,8,128,128,36,128,4,4,128
64,8,128,128,40,128,4,4,128
64,8,128,128,44,128,4,4,128
64,8,128,128,48,128,4,4,128
64,8,128,128,8,128,4,8,64
64,8,128,128,16,128,4,8,64
64,8,128,128,24,128,4,8,64
64,8,128,128,32,128,4,8,64
64,8,128,128,40,128,4,8,64
64,8,128,128,48,128,4,8,64
64,8,128,128,16,128,4,16,32
64,8,128,128,32,128,4,16,32
64,8,128,128,48,128,4,16,32
64,8,128,128,32,128,4,32,16
64,16,128,128,32,32,32,8,128
64,16,128,128,32,32,32,16,64
64,16,128,128,32,32,32,32,32
64,16,128,128,16,64,16,8,128
64,16,128,128,32,64,16,8,128
64,16,128,128,48,64,16,8,128
64,16,128,128,16,64,16,16,64
64,16,128,128,32,64,16,16,64
64,16,128,128,48,64,16,16,64
64,16,128,128,32,64,16,32,32
64,16,128,128,8,128,8,8,128
64,16,128,128,16,128,8,8,128
64,16,128,128,24,128,8,8,128
64,16,128,128,32,128,8,8,128
64,16,128,128,40,128,8,8,128
64,16,128,128,48,128,8,8,128
64,16,128,128,16,128,8,16,64
64,16,128,128,32,128,8,16,64
64,16,128,128,48,128,8,16,64
64,16,128,128,32,128,8,32,32
